<?xml version="1.0" encoding="utf-8"?>
<!-- Generator: Adobe Illustrator 17.1.0, SVG Export Plug-In . SVG Version: 6.00 Build 0)  -->
<!DOCTYPE svg PUBLIC "-//W3C//DTD SVG 1.1//EN" "http://www.w3.org/Graphics/SVG/1.1/DTD/svg11.dtd">
<svg version="1.1" id="Layer_1" xmlns="http://www.w3.org/2000/svg" xmlns:xlink="http://www.w3.org/1999/xlink" x="0px" y="0px"
	 viewBox="0 0 38 38" enable-background="new 0 0 38 38" xml:space="preserve">
<g>
	<g>
		<polygon fill="none" stroke="#000000" stroke-miterlimit="10" points="4.5,5.5 25,5.5 28.5,9.6 28.5,23 28.5,24.5 31.5,24.5 
			31.5,34.5 2.5,34.5 2.5,24.5 4.5,24.5 		"/>
		<polyline fill="none" stroke="#000000" stroke-miterlimit="10" points="7.5,5 7.5,2.5 28,2.5 31.5,6.6 31.5,20 31.5,21.5 
			34.5,21.5 34.5,31.5 32,31.5 		"/>
		<line fill="none" stroke="#000000" stroke-miterlimit="10" x1="9" y1="12.5" x2="24" y2="12.5"/>
		<line fill="none" stroke="#000000" stroke-miterlimit="10" x1="9" y1="16.5" x2="24" y2="16.5"/>
		<line fill="none" stroke="#000000" stroke-miterlimit="10" x1="9" y1="20.5" x2="24" y2="20.5"/>
		<polyline fill="none" stroke="#000000" stroke-miterlimit="10" points="6.5,24 6.5,29.5 27.5,29.5 27.5,24 		"/>
	</g>
	<polyline fill="none" stroke="#000000" stroke-miterlimit="10" points="4,24.5 6,24.5 6,24.5 6,24.5 	"/>
</g>
</svg>
