<?xml version="1.0" encoding="iso-8859-1"?>
<!-- Generator: Adobe Illustrator 16.0.0, SVG Export Plug-In . SVG Version: 6.00 Build 0)  -->
<!DOCTYPE svg PUBLIC "-//W3C//DTD SVG 1.1//EN" "http://www.w3.org/Graphics/SVG/1.1/DTD/svg11.dtd">
<svg xmlns="http://www.w3.org/2000/svg" xmlns:xlink="http://www.w3.org/1999/xlink" version="1.1" id="Capa_1" x="0px" y="0px" width="512px" height="512px" viewBox="0 0 363.025 363.024" style="enable-background:new 0 0 363.025 363.024;" xml:space="preserve">
<g>
	<path d="M181.512,0C81.43,0,0,81.43,0,181.513c0,100.088,81.43,181.512,181.512,181.512   c100.089,0,181.513-81.424,181.513-181.512C363.025,81.43,281.601,0,181.512,0z M181.512,351.314   c-93.632,0-169.802-76.175-169.802-169.802C11.71,87.88,87.88,11.71,181.512,11.71c91.66,0,166.543,73.014,169.654,163.936   l-189.941-0.369l32.959-32.958l-8.28-8.28l-47.064,47.065l47.886,47.88l8.282-8.279l-33.725-33.726l189.895,0.378   C348.067,278.284,273.184,351.314,181.512,351.314z" fill="#FFFFFF"/>
</g>
<g>
</g>
<g>
</g>
<g>
</g>
<g>
</g>
<g>
</g>
<g>
</g>
<g>
</g>
<g>
</g>
<g>
</g>
<g>
</g>
<g>
</g>
<g>
</g>
<g>
</g>
<g>
</g>
<g>
</g>
</svg>
