<svg xmlns="http://www.w3.org/2000/svg" xmlns:xlink="http://www.w3.org/1999/xlink" width="30" height="30" viewBox="0 0 30 30">
  <metadata><?xpacket begin="﻿" id="W5M0MpCehiHzreSzNTczkc9d"?>
<x:xmpmeta xmlns:x="adobe:ns:meta/" x:xmptk="Adobe XMP Core 5.6-c138 79.159824, 2016/09/14-01:09:01        ">
   <rdf:RDF xmlns:rdf="http://www.w3.org/1999/02/22-rdf-syntax-ns#">
      <rdf:Description rdf:about=""/>
   </rdf:RDF>
</x:xmpmeta>
                                                                                                    
                                                                                                    
                                                                                                    
                                                                                                    
                                                                                                    
                                                                                                    
                                                                                                    
                                                                                                    
                                                                                                    
                                                                                                    
                                                                                                    
                                                                                                    
                                                                                                    
                                                                                                    
                                                                                                    
                                                                                                    
                                                                                                    
                                                                                                    
                                                                                                    
                                                                                                    
                           
<?xpacket end="w"?></metadata>
<defs>
    <style>
      .cls-1 {
        fill: #000;
        fill-rule: evenodd;
        filter: url(#filter);
      }
    </style>
    <filter id="filter" x="70" y="784" width="30" height="30" filterUnits="userSpaceOnUse">
      <feFlood result="flood" flood-color="#fff"/>
      <feComposite result="composite" operator="in" in2="SourceGraphic"/>
      <feBlend result="blend" in2="SourceGraphic"/>
    </filter>
  </defs>
  <path id="Forma_1" data-name="Forma 1" class="cls-1" d="M98.455,795.667H95.649a1.078,1.078,0,0,1-.762-1.84l1.984-1.984a1.546,1.546,0,0,0,0-2.185l-2.529-2.529a1.581,1.581,0,0,0-2.185,0l-1.984,1.984a1.078,1.078,0,0,1-1.84-.762v-2.807A1.546,1.546,0,0,0,86.789,784H83.211a1.546,1.546,0,0,0-1.544,1.544v2.807a1.078,1.078,0,0,1-1.84.762l-1.984-1.984a1.581,1.581,0,0,0-2.185,0l-2.529,2.529a1.546,1.546,0,0,0,0,2.185l1.985,1.984a1.078,1.078,0,0,1-.762,1.84H71.544A1.546,1.546,0,0,0,70,797.211v3.577a1.546,1.546,0,0,0,1.545,1.545h2.807a1.078,1.078,0,0,1,.762,1.84l-1.985,1.983a1.547,1.547,0,0,0,0,2.186l2.529,2.529a1.581,1.581,0,0,0,2.185,0l1.984-1.984a1.077,1.077,0,0,1,1.84.762v2.806A1.546,1.546,0,0,0,83.211,814h3.577a1.546,1.546,0,0,0,1.544-1.545v-2.806a1.077,1.077,0,0,1,1.839-.762l1.984,1.984a1.582,1.582,0,0,0,2.185,0l2.529-2.529a1.547,1.547,0,0,0,0-2.186l-1.984-1.983a1.078,1.078,0,0,1,.763-1.84h2.807A1.546,1.546,0,0,0,100,800.789v-3.578A1.545,1.545,0,0,0,98.455,795.667Zm0.433,5.122a0.434,0.434,0,0,1-.433.433H95.649a2.189,2.189,0,0,0-1.548,3.737l1.985,1.984a0.433,0.433,0,0,1,0,.613l-2.53,2.529a0.433,0.433,0,0,1-.613,0L90.959,808.1a2.189,2.189,0,0,0-3.737,1.548v2.806a0.434,0.434,0,0,1-.433.434H83.211a0.434,0.434,0,0,1-.433-0.434v-2.806a2.155,2.155,0,0,0-1.351-2.023,2.215,2.215,0,0,0-.852-0.172,2.16,2.16,0,0,0-1.534.646l-1.984,1.985a0.434,0.434,0,0,1-.613,0l-2.53-2.53a0.433,0.433,0,0,1,0-.613l1.985-1.984a2.188,2.188,0,0,0-1.548-3.736H71.544a0.433,0.433,0,0,1-.433-0.433v-3.578a0.433,0.433,0,0,1,.433-0.433h2.807a2.189,2.189,0,0,0,1.548-3.737l-1.985-1.984a0.433,0.433,0,0,1,0-.613l2.53-2.53a0.434,0.434,0,0,1,.613,0l1.984,1.984a2.189,2.189,0,0,0,3.737-1.547v-2.807a0.434,0.434,0,0,1,.433-0.433h3.577a0.434,0.434,0,0,1,.434.433v2.807a2.189,2.189,0,0,0,3.737,1.548l1.984-1.984a0.433,0.433,0,0,1,.613,0l2.53,2.529a0.434,0.434,0,0,1,0,.614L94.1,793.042a2.189,2.189,0,0,0,1.548,3.736h2.807a0.434,0.434,0,0,1,.433.433v3.578ZM85,794a5,5,0,1,0,5,5A5.006,5.006,0,0,0,85,794Zm0,8.889A3.889,3.889,0,1,1,88.889,799,3.894,3.894,0,0,1,85,802.889Z" transform="translate(-70 -784)"/>
</svg>
